-----BEGIN PGP PUBLIC KEY BLOCK-----
Comment: This is a revocation certificate

iLYEIAEIACAWIQTUqUiGscoglqZFjlxH8QwIeIS3WAUCWYClvgIdAgAKCRBH8QwI
eIS3WLpBBADCUtyYmI2Z8DCOnKUW4nRjHc3ZVMoZJlwceJCWhSybBrnjo6LWzvBy
eKke4qHlh+jmSk3/Qyio6vYzvicOayDwhr0s/1X26MiYorthfiCQOg2WQ0YiRuMC
/Ml8rukvBTRGvXikcIuBw5MFqCWsWI7ExPKaaresnHaCn37KF0A6hw==
=4oku
-----END PGP PUBLIC KEY BLOCK-----
